{ "frames": {
   "bullethit 0.ase": {
    "frame": { "x": 0, "y": 0, "w": 23, "h": 23 },
    "rotated": false,
    "trimmed": false,
    "spriteSourceSize": { "x": 0, "y": 0, "w": 23, "h": 23 },
    "sourceSize": { "w": 23, "h": 23 },
    "duration": 33
   },
   "bullethit 1.ase": {
    "frame": { "x": 23, "y": 0, "w": 23, "h": 23 },
    "rotated": false,
    "trimmed": false,
    "spriteSourceSize": { "x": 0, "y": 0, "w": 23, "h": 23 },
    "sourceSize": { "w": 23, "h": 23 },
    "duration": 33
   },
   "bullethit 2.ase": {
    "frame": { "x": 46, "y": 0, "w": 23, "h": 23 },
    "rotated": false,
    "trimmed": false,
    "spriteSourceSize": { "x": 0, "y": 0, "w": 23, "h": 23 },
    "sourceSize": { "w": 23, "h": 23 },
    "duration": 33
   },
   "bullethit 3.ase": {
    "frame": { "x": 69, "y": 0, "w": 23, "h": 23 },
    "rotated": false,
    "trimmed": false,
    "spriteSourceSize": { "x": 0, "y": 0, "w": 23, "h": 23 },
    "sourceSize": { "w": 23, "h": 23 },
    "duration": 33
   },
   "bullethit 4.ase": {
    "frame": { "x": 92, "y": 0, "w": 23, "h": 23 },
    "rotated": false,
    "trimmed": false,
    "spriteSourceSize": { "x": 0, "y": 0, "w": 23, "h": 23 },
    "sourceSize": { "w": 23, "h": 23 },
    "duration": 33
   }
 },
 "meta": {
  "app": "http://www.aseprite.org/",
  "version": "1.0.9-dev",
  "image": "bullethit.png",
  "format": "I8",
  "size": { "w": 128, "h": 64 },
  "scale": "1"
 }
}
